00000000
00000000
00000000
00000000
00000000
00000000
00000000
00000000
00000000
00000000
00000000
00000000
00000000
00000000
00000000
00000000
00000000
00000000
00000000
00000000
00000000
00000000
00000000
00000000
00000000
00000010
00000000
00101000
00000000
00010101
00010101
00010101
01100110
00000000
00001101
01000010
00000000
00001111
00000100
00001000
00000000
00100000
00000000
00000000
00000000
00000000
00010101
00010101
00010101
00000000
00000111
00000000
00111000
00000000
00000000
00000000
00000000
00000000
00000000
00000000
00000000
00000000
00010101
00010101
11011101
00001101
00000000
00000000
00000000
00000000
00000000
00000000
00000000
00000000
00000000
00000000
00000000
00000000
00000000
00000000
00000000
00000111
00000111
00000111
00000000
00000000
00000000
00010101
11011101
00001101
00000000
00000000
00000000
00000000
00000000
00000000
00000000
00000000
00000000
00000000
00000000
00000000
00000000
00000000
00000000
00010001
00010001
00010001
00000000
00000000
00000000
00101010
11011101
00001101
00000000
00000000
00000000
00000000
00000000
00000000
00000000
00000000
00000000
00000000
00000000
00000000
00000000
00000000
00000000
00010001
00010001
00010001
00000000
00000000
00000000
00101010
11011101
00001101
00000000
00000000
00000000
00000000
00000000
00000000
00000000
00000000
00000000
00000000
00000000
00000000
00000000
00000000
00000000
00010001
00010001
00010001
00000000
00000000
00000000
00111111
11011101
00001101
00000000
00000000
00000000
00000000
00000000
00000000
00000000
00000000
00000000
00000000
00000000
00000000
00000000
00000000
00000000
00010001
00010001
00010001
00000000
00000000
00000000
00000000
00000000
01110000
00000000
00000000
00000000
00000000
00000000
00000000
00000000
00000000
00000000
00000000
00000000
00000000
00000000
00000000
00000000
00000000
00000000
00000000
00000000
00000000
00000000
00000000
00000000
01110000
00000000
00000000
00000000
00000000
00000000
00000000
00000000
00000000
00000000
00000000
00000000
00000000
00000000
00000000
00000000
00000000
00000000
00000000
00000000
00000000
00000000
00000000
00000000
01110000
00000000
00000000
00000000
00000000
00000000
00000000
00000000
00000000
00111111
00111111
00111000
00000111
00000000
00000000
00000111
00000000
00000000
00000111
00000000
00000000
01110001
00000111
00000111
00000000
00000000
00000000
00000011
00000001
00000001
00000011
00000001
00000001
00000011
00000001
00000001
00000000
00000000
00000000
00000000
00100000
00000000
00000000
00000000
00000000
00000000
00000000
00000000
00010101
00000000
00000000
00000000
00000000
00000000
00000000
00000000
00000000
00000000
00000000
00000000
11111111
11111111
11111111
01000000
01000000
01000000
00101010
00101010
00101010
00000000
00000000
11111111
11111111
11111111
01000000
01000000
01000000
00101010
00101010
00101010
01001110
01001110
01001110
10101010
00001010
00000111
00000000
00000111
00010001
00010001
00010001
00010001
00000000
00000000
10001000
10001000
10001000
10001000
10001000
00000001
00000111
00000111
00000000
00000000
00000000
00000011
00000001
00000001
00000011
00000001
00000001
00000011
00000001
00000001
00000001
00000111
00000111
00000000
00000000
00000000
00000011
00000001
00000001
00000011
00000001
00000001
00000011
00000001
00000001
00000000
00000000
00000000
10101010
00000111
00111000
01010101
11100100
00001011
10000001
10000001
10000001
10100101
00000000
00000000
11111101
11001101
11001101
11001101
00000000
00000000
00000000
00000000
00000000
00000000
00000000
10101010
10111011
10011111
11111111
11111111
11111111
11111110
11111111
11111111
11111111
00010000
10100000
00000000
00000000
00000000
00000110
00000000
00000000
00000000
00001001
00000000
00000000
00000000
00000110
00000000
00000000
00000000
00001001
00000000
00001010
00000000
00000000
00000000
00000000
00000000
00000000
00000000
00000000
00000000
00001111
01111001
11111111
00000000
01100001
11011111
10111111
10111101
10011011
