Opened FLX-card 0, firmw FLX712-GBT-12chan-1910221102-GIT:rm-4.8/46
>>> GBTX#5 I2C-addr=1: read all registers
Reply: Parity OK
  0:  00 00 00 00 00 00 00 00 00 00 00 00 00 00 00 00
 16:  00 00 00 00 00 00 00 00 00 02 00 28 00 15 15 15
 32:  66 00 0d 42 00 0f 04 08 00 20 00 00 00 00 15 15
 48:  15 00 07 00 38 00 00 00 00 00 00 00 00 00 15 15
 64:  dd 0d 00 00 00 00 00 00 00 00 00 00 00 00 00 00
 80:  00 07 07 07 00 00 00 15 dd 0d 00 00 00 00 00 00
 96:  00 00 00 00 00 00 00 00 00 11 11 11 00 00 00 2a
112:  dd 0d 00 00 00 00 00 00 00 00 00 00 00 00 00 00
128:  00 11 11 11 00 00 00 2a dd 0d 00 00 00 00 00 00
144:  00 00 00 00 00 00 00 00 00 11 11 11 00 00 00 3f
160:  dd 0d 00 00 00 00 00 00 00 00 00 00 00 00 00 00
176:  00 11 11 11 00 00 00 00 00 70 00 00 00 00 00 00
192:  00 00 00 00 00 00 00 00 00 00 00 00 00 00 00 00
208:  00 70 00 00 00 00 00 00 00 00 00 00 00 00 00 00
224:  00 00 00 00 00 00 00 00 00 70 00 00 00 00 00 00
240:  00 00 3f 3f 38 07 00 00 07 00 00 07 00 00 71 07
256:  07 00 00 00 03 01 01 03 01 01 03 01 01 00 00 00
272:  00 20 00 00 00 00 00 00 00 15 00 00 00 00 00 00
288:  00 00 00 00 00 ff ff ff 40 40 40 2a 2a 2a 00 00
304:  ff ff ff 40 40 40 2a 2a 2a 4e 4e 4e aa 0a 07 00
320:  07 11 11 11 11 00 00 88 88 88 88 88 01 07 07 00
336:  00 00 03 01 01 03 01 01 03 01 01 01 07 07 00 00
352:  00 03 01 01 03 01 01 03 01 01 00 00 00 aa 07 a5
368:  54 5c a2 81 81 81 a5 00 00 fd a7 a7 a7 00 00 00
384:  00 00 00 00 aa bb 9f ff ef fe fe ff ff ff 10 00
400:  00 00 00 05 00 06 00 0b 00 08 00 0b 00 07 00 06
416:  00 06 00 00 00 00 00 00 00 00 00 0f 78 ff 00 61
432:  ff ff fe d8
(chunks received: 1)
