00
00
00
00
00
00
00
00
00
00
00
00
00
00
00
00
00
00
00
00
00
00
00
00
00
02
00
28
00
15
15
15
66
00
0d
42
00
0f
04
08
00
20
00
00
00
00
15
15
15
00
07
00
38
00
00
00
00
00
00
00
00
00
15
15
dd
0d
00
00
00
00
00
00
00
00
00
00
00
00
00
00
00
07
07
07
00
00
00
15
dd
0d
00
00
00
00
00
00
00
00
00
00
00
00
00
00
00
11
11
11
00
00
00
2a
dd
0d
00
00
00
00
00
00
00
00
00
00
00
00
00
00
00
11
11
11
00
00
00
2a
dd
0d
00
00
00
00
00
00
00
00
00
00
00
00
00
00
00
11
11
11
00
00
00
3f
dd
0d
00
00
00
00
00
00
00
00
00
00
00
00
00
00
00
11
11
11
00
00
00
00
00
70
00
00
00
00
00
00
00
00
00
00
00
00
00
00
00
00
00
00
00
00
00
00
00
70
00
00
00
00
00
00
00
00
00
00
00
00
00
00
00
00
00
00
00
00
00
00
00
70
00
00
00
00
00
00
00
00
3f
3f
38
07
00
00
07
00
00
07
00
00
71
07
07
00
00
00
03
01
01
03
01
01
03
01
01
00
00
00
00
20
00
00
00
00
00
00
00
15
00
00
00
00
00
00
00
00
00
00
00
ff
ff
ff
40
40
40
2a
2a
2a
00
00
ff
ff
ff
40
40
40
2a
2a
2a
4e
4e
4e
aa
0a
07
00
07
11
11
11
11
00
00
88
88
88
88
88
01
07
07
00
00
00
03
01
01
03
01
01
03
01
01
01
07
07
00
00
00
03
01
01
03
01
01
03
01
01
00
00
00
aa
01
02
00
