STGC FEB MAPPING,20MNIWSAC00004,2020-06-11_18:03:12

QUADRUPLET,FEB,LAYER,L1DDC,SCA ID,FELIX FIBERS
1,sFEB,Layer1,L1DDC1,16580,0 & 12,
2,sFEB,Layer1,L1DDC1,27437,0 & 12,
3,sFEB,Layer1,L1DDC1,22094,0 & 12,
1,pFEB,Layer1,L1DDC2,21450,1 & 13,
2,pFEB,Layer1,L1DDC2,16660,1 & 13,
3,pFEB,Layer1,L1DDC2,16663,1 & 13,
1,sFEB,Layer2,L1DDC3,16602,2 & 14,
2,sFEB,Layer2,L1DDC3,22178,2 & 14,
3,sFEB,Layer2,L1DDC3,22199,2 & 14,
1,pFEB,Layer2,L1DDC4,21439,3 & 15,
2,pFEB,Layer2,L1DDC4,20966,3 & 15,
3,pFEB,Layer2,L1DDC4,16595,3 & 15,
1,sFEB,Layer3,L1DDC5,16500,4 & 16,
2,sFEB,Layer3,L1DDC5,22172,4 & 16,
3,sFEB,Layer3,L1DDC5,27397,4 & 16,
1,pFEB,Layer3,L1DDC6,21274,5 & 17,
2,pFEB,Layer3,L1DDC6,21295,5 & 17,
3,pFEB,Layer3,L1DDC6,16640,5 & 17,
1,sFEB,Layer4,L1DDC7,16606,6 & 18,
2,sFEB,Layer4,L1DDC7,22182,6 & 18,
3,sFEB,Layer4,L1DDC7,22288,6 & 18,
1,pFEB,Layer4,L1DDC8,21446,7 & 19,
2,pFEB,Layer4,L1DDC8,20890,7 & 19,
3,pFEB,Layer4,L1DDC8,16593,7 & 19,
