STGC L1DDC CONFIGURATION,WEDGE ID: 20MNIWSAP00005,TIME = 2020-02-13_10:19:49

CHANNEL,SCA ID,FEB,FIBERS,VTRX 1 CONNECTION,VTRX 2 CONNECTION,MTF ID
0,17328,L1DDC1(Layer1 sFEB),0 & 12,YES,YES,152
1,25426,L1DDC2(Layer1 pFEB),1 & 13,YES,,168
2,17308,L1DDC3(Layer2 sFEB),2 & 14,YES,YES,149
3,25345,L1DDC4(Layer2 pFEB),3 & 15,YES,,105
4,24829,L1DDC5(Layer3 sFEB),4 & 16,YES,YES,067
5,16942,L1DDC6(Layer3 pFEB),5 & 17,YES,,291
6,17332,L1DDC7(Layer4 sFEB),6 & 18,YES,YES,158
7,17435,L1DDC8(Layer4 pFEB),7 & 19,YES,,252
