STGC L1DDC MAPPING,20MWIWSAP00003,2020-03-06_09:21:51

L1DDC,LAYER,FEB,SCA ID,FELIX FIBERS,VTRX 1 CONNECTION,VTRX 2 CONNECTION,MTF NBR
L1DDC1,Layer1,sFEB,24758,0 & 12,"<html><head/><body><p><span style="" font-size:6pt; color:#ffffff;"">TextLabel</span></p></body></html>","<html><head/><body><p><span style="" font-size:6pt; color:#ffffff;"">TextLabel</span></p></body></html>",20MNEL1CT10
L1DDC2,Layer1,pFEB,17502,1 & 13,"<html><head/><body><p><span style="" font-size:6pt; color:#ffffff;"">TextLabel</span></p></body></html>",,20MNEL1CT10
L1DDC3,Layer2,sFEB,17275,2 & 14,"<html><head/><body><p><span style="" font-size:6pt; color:#ffffff;"">TextLabel</span></p></body></html>","<html><head/><body><p><span style="" font-size:6pt; color:#ffffff;"">TextLabel</span></p></body></html>",20MNEL1CT10
L1DDC4,Layer2,pFEB,25425,3 & 15,"<html><head/><body><p><span style="" font-size:6pt; color:#ffffff;"">TextLabel</span></p></body></html>",,20MNEL1CT10
L1DDC5,Layer3,sFEB,17053,4 & 16,"<html><head/><body><p><span style="" font-size:6pt; color:#ffffff;"">TextLabel</span></p></body></html>","<html><head/><body><p><span style="" font-size:6pt; color:#ffffff;"">TextLabel</span></p></body></html>",20MNEL1CT10
L1DDC6,Layer3,pFEB,24781,5 & 17,"<html><head/><body><p><span style="" font-size:6pt; color:#ffffff;"">TextLabel</span></p></body></html>",,20MNEL1CT10
L1DDC7,Layer4,sFEB,17460,6 & 18,"<html><head/><body><p><span style="" font-size:6pt; color:#ffffff;"">TextLabel</span></p></body></html>","<html><head/><body><p><span style="" font-size:6pt; color:#ffffff;"">TextLabel</span></p></body></html>",20MNEL1CT10
L1DDC8,Layer4,pFEB,17655,7 & 19,"<html><head/><body><p><span style="" font-size:6pt; color:#ffffff;"">TextLabel</span></p></body></html>",,20MNEL1CT10
